Tidy Transcriptomics case study • iscb2022tidytranscriptomics
…
We can use mutate to create a column. For example, we could create a new ident_l column that contains a lower-case version of ident.

seurat_obj %>%
  mutate(Phase_l=tolower(Phase)) %>%
  # select columns to view    
  select(Phase, Phase_l)

## tidyseurat says: Key columns are missing. A data frame is returned for independent data analysis.

## # A tibble: 36,683 × 2
##    Phase Phase_l
##    <chr> <chr>  
##  1 G1    g1     
##  2 S     s      
##  3 S     s      
##  4 G1    g1     
##  5 S     s      
##  6 S     s      
##  7 S     s      
##  8 S     s      
##  9 S     s      
## 10 S     s      
## # … with 36,673 more rows
…
